Area;Punto;Lat;Long
PIE;TO;45,0735;7,6756
PIE;CN;44,4196;7,5576
PIE;AL;44,9169;8,6465
LIG;GE;44,4492;8,8807
LIG;IM;43,9031;8,0092
LIG;SP;44,0988;9,8654
LOM;MI;45,4613;9,1595
LOM;CO;45,8094;9,0837
LOM;PV;45,1859;9,1544